How are you doing?, "Well,Fine", 1
How much is 2 * 2?, "4,5", 0
How far is the Moon?, "15800 km,384400 km,1123500 km", 1
What day is my birthday?, "10.02,13.11", 1
What's the capital of Russia?, "Moscow,Saint-Petersburg", 0
