 __    __    ______    __           ___      
|  |  |  |  /  __  \  |  |         /   \     
|  |__|  | |  |  |  | |  |        /  ^  \    
|   __   | |  |  |  | |  |       /  /_\  \   
|  |  |  | |  `--'  | |  `----. /  _____  \  
|__|  |__|  \______/  |_______|/__/     \__\ 
                                             
